TV Tuner,Screen Size,Display Type,Smart Platform,Vertical Resolution
Insignia™ - 50"|299.99|a1.jpg|Digital|49.5|LED|Roku TV|2160p
Sharp - 32"|129.99|a2.jpg|Digital|31.5|LED|Roku TV|2160p
Toshiba - 55"|299.99|a3.jpg|Digital|54.6|LED|-|1080p
Hisense - 60"|429.99|a4.jpg|Digital|59.5|LED|Hisense Smart TV|2160p